EESchema Schematic File Version 2
LIBS:power
LIBS:device
LIBS:transistors
LIBS:conn
LIBS:linear
LIBS:regul
LIBS:74xx
LIBS:cmos4000
LIBS:adc-dac
LIBS:memory
LIBS:xilinx
LIBS:microcontrollers
LIBS:dsp
LIBS:microchip
LIBS:analog_switches
LIBS:motorola
LIBS:texas
LIBS:intel
LIBS:audio
LIBS:interface
LIBS:digital-audio
LIBS:philips
LIBS:display
LIBS:cypress
LIBS:siliconi
LIBS:opto
LIBS:atmel
LIBS:contrib
LIBS:valves
LIBS:lph7366
LIBS:project-cache
EELAYER 25 0
EELAYER END
$Descr A4 11693 8268
encoding utf-8
Sheet 1 1
Title ""
Date ""
Rev ""
Comp ""
Comment1 ""
Comment2 ""
Comment3 ""
Comment4 ""
$EndDescr
$Comp
L LPH7366 D1
U 1 1 55A382E4
P 5800 3500
F 0 "D1" H 5800 4050 60  0000 C CNN
F 1 "LPH7366" H 5800 3000 60  0000 C CNN
F 2 "Local:LPH-7366" H 5600 3400 60  0001 C CNN
F 3 "" H 5600 3400 60  0000 C CNN
	1    5800 3500
	1    0    0    -1  
$EndComp
Wire Wire Line
	5400 3700 4800 3700
Wire Wire Line
	4800 3700 4800 4400
Wire Wire Line
	4800 4400 4800 4500
Wire Wire Line
	4200 3100 4600 3100
Wire Wire Line
	4600 3100 4800 3100
Wire Wire Line
	4800 3100 5400 3100
Wire Wire Line
	4800 3100 4800 3000
$Comp
L +3V3 #PWR01
U 1 1 55A3835C
P 4800 3000
F 0 "#PWR01" H 4800 2850 60  0001 C CNN
F 1 "+3V3" H 4800 3140 60  0000 C CNN
F 2 "" H 4800 3000 60  0000 C CNN
F 3 "" H 4800 3000 60  0000 C CNN
	1    4800 3000
	1    0    0    -1  
$EndComp
$Comp
L C C2
U 1 1 55A38373
P 5000 4150
F 0 "C2" H 5050 4250 50  0000 L CNN
F 1 "100n" H 5050 4050 50  0000 L CNN
F 2 "Capacitors_SMD:C_0603" H 5038 4000 30  0001 C CNN
F 3 "" H 5000 4150 60  0000 C CNN
	1    5000 4150
	1    0    0    -1  
$EndComp
$Comp
L C C1
U 1 1 55A383B2
P 4600 4150
F 0 "C1" H 4650 4250 50  0000 L CNN
F 1 "100n" H 4650 4050 50  0000 L CNN
F 2 "Capacitors_SMD:C_0603" H 4638 4000 30  0001 C CNN
F 3 "" H 4600 4150 60  0000 C CNN
	1    4600 4150
	1    0    0    -1  
$EndComp
Wire Wire Line
	5400 3800 5000 3800
Wire Wire Line
	5000 3800 5000 4000
Wire Wire Line
	4600 4300 4600 4400
Wire Wire Line
	4400 4400 4600 4400
Wire Wire Line
	4600 4400 4800 4400
Wire Wire Line
	4800 4400 5000 4400
Wire Wire Line
	5000 4400 5000 4300
Connection ~ 4800 4400
$Comp
L GND #PWR02
U 1 1 55A38434
P 4800 4500
F 0 "#PWR02" H 4800 4250 60  0001 C CNN
F 1 "GND" H 4800 4350 60  0000 C CNN
F 2 "" H 4800 4500 60  0000 C CNN
F 3 "" H 4800 4500 60  0000 C CNN
	1    4800 4500
	1    0    0    -1  
$EndComp
Connection ~ 4800 3100
Wire Wire Line
	4200 3200 5400 3200
Wire Wire Line
	4200 3300 5400 3300
Wire Wire Line
	4200 3400 5400 3400
Wire Wire Line
	4200 3500 5400 3500
Wire Wire Line
	4500 3900 5400 3900
$Comp
L CONN_01X08 P1
U 1 1 55A386D0
P 4000 3450
F 0 "P1" H 4000 3900 50  0000 C CNN
F 1 "DISPLAY" V 4100 3450 50  0000 C CNN
F 2 "Pin_Headers:Pin_Header_Straight_1x08" H 4000 3450 60  0001 C CNN
F 3 "" H 4000 3450 60  0000 C CNN
	1    4000 3450
	-1   0    0    1   
$EndComp
Wire Wire Line
	4200 3800 4400 3800
Wire Wire Line
	4400 3800 4400 4400
Connection ~ 4600 4400
Wire Wire Line
	4500 3600 4500 3900
Wire Wire Line
	4600 3100 4600 3600
Wire Wire Line
	4600 3600 4600 4000
Connection ~ 4600 3600
$Comp
L LED D2
U 1 1 55A57413
P 6600 3800
F 0 "D2" H 6600 3900 50  0000 C CNN
F 1 "LED" H 6600 3700 50  0000 C CNN
F 2 "LEDs:LED-0603" H 6600 3800 60  0001 C CNN
F 3 "" H 6600 3800 60  0000 C CNN
	1    6600 3800
	0    -1   1    0   
$EndComp
$Comp
L LED D3
U 1 1 55A57454
P 7000 3800
F 0 "D3" H 7000 3900 50  0000 C CNN
F 1 "LED" H 7000 3700 50  0000 C CNN
F 2 "LEDs:LED-0603" H 7000 3800 60  0001 C CNN
F 3 "" H 7000 3800 60  0000 C CNN
	1    7000 3800
	0    -1   1    0   
$EndComp
$Comp
L LED D4
U 1 1 55A57482
P 7400 3800
F 0 "D4" H 7400 3900 50  0000 C CNN
F 1 "LED" H 7400 3700 50  0000 C CNN
F 2 "LEDs:LED-0603" H 7400 3800 60  0001 C CNN
F 3 "" H 7400 3800 60  0000 C CNN
	1    7400 3800
	0    -1   1    0   
$EndComp
$Comp
L LED D5
U 1 1 55A574F1
P 7800 3800
F 0 "D5" H 7800 3900 50  0000 C CNN
F 1 "LED" H 7800 3700 50  0000 C CNN
F 2 "LEDs:LED-0603" H 7800 3800 60  0001 C CNN
F 3 "" H 7800 3800 60  0000 C CNN
	1    7800 3800
	0    -1   1    0   
$EndComp
$Comp
L R R2
U 1 1 55A57513
P 6600 3350
F 0 "R2" V 6680 3350 50  0000 C CNN
F 1 "50" V 6607 3351 50  0000 C CNN
F 2 "Resistors_SMD:R_0603" V 6530 3350 30  0001 C CNN
F 3 "" H 6600 3350 30  0000 C CNN
	1    6600 3350
	-1   0    0    1   
$EndComp
Wire Wire Line
	6600 4000 6600 4100
Wire Wire Line
	6600 4100 7000 4100
Wire Wire Line
	7000 4100 7200 4100
Wire Wire Line
	7200 4100 7400 4100
Wire Wire Line
	7400 4100 7800 4100
Wire Wire Line
	7000 4100 7000 4000
Wire Wire Line
	7400 4100 7400 4000
Connection ~ 7000 4100
Wire Wire Line
	7800 4100 7800 4000
Connection ~ 7400 4100
Wire Wire Line
	6600 3500 6600 3600
$Comp
L R R3
U 1 1 55A576AE
P 7000 3350
F 0 "R3" V 7080 3350 50  0000 C CNN
F 1 "50" V 7007 3351 50  0000 C CNN
F 2 "Resistors_SMD:R_0603" V 6930 3350 30  0001 C CNN
F 3 "" H 7000 3350 30  0000 C CNN
	1    7000 3350
	-1   0    0    1   
$EndComp
$Comp
L R R4
U 1 1 55A576D8
P 7400 3350
F 0 "R4" V 7480 3350 50  0000 C CNN
F 1 "50" V 7407 3351 50  0000 C CNN
F 2 "Resistors_SMD:R_0603" V 7330 3350 30  0001 C CNN
F 3 "" H 7400 3350 30  0000 C CNN
	1    7400 3350
	-1   0    0    1   
$EndComp
$Comp
L R R5
U 1 1 55A5770B
P 7800 3350
F 0 "R5" V 7880 3350 50  0000 C CNN
F 1 "50" V 7807 3351 50  0000 C CNN
F 2 "Resistors_SMD:R_0603" V 7730 3350 30  0001 C CNN
F 3 "" H 7800 3350 30  0000 C CNN
	1    7800 3350
	-1   0    0    1   
$EndComp
Wire Wire Line
	7000 3500 7000 3600
Wire Wire Line
	7400 3500 7400 3600
Wire Wire Line
	7800 3500 7800 3600
Wire Wire Line
	6600 3200 6600 3100
Wire Wire Line
	6600 3100 7000 3100
Wire Wire Line
	7000 3100 7200 3100
Wire Wire Line
	7200 3100 7400 3100
Wire Wire Line
	7400 3100 7800 3100
Wire Wire Line
	7000 3100 7000 3200
Wire Wire Line
	7400 3100 7400 3200
Connection ~ 7000 3100
Wire Wire Line
	7800 3100 7800 3200
Connection ~ 7400 3100
$Comp
L Q_NPN_BEC Q1
U 1 1 55A57892
P 7100 4400
F 0 "Q1" H 7100 4251 40  0000 R CNN
F 1 "MMBT3904" H 7100 4550 40  0000 R CNN
F 2 "Housings_SOT-23_SOT-143_TSOT-6:SOT-23" H 7000 4502 29  0001 C CNN
F 3 "" H 7100 4400 60  0000 C CNN
	1    7100 4400
	1    0    0    -1  
$EndComp
Wire Wire Line
	7200 4200 7200 4100
Connection ~ 7200 4100
Wire Wire Line
	7200 4600 7200 4700
$Comp
L GND #PWR03
U 1 1 55A5796A
P 7200 4700
F 0 "#PWR03" H 7200 4450 60  0001 C CNN
F 1 "GND" H 7200 4550 60  0000 C CNN
F 2 "" H 7200 4700 60  0000 C CNN
F 3 "" H 7200 4700 60  0000 C CNN
	1    7200 4700
	1    0    0    -1  
$EndComp
$Comp
L +3V3 #PWR04
U 1 1 55A57982
P 7200 3000
F 0 "#PWR04" H 7200 2850 60  0001 C CNN
F 1 "+3V3" H 7200 3140 60  0000 C CNN
F 2 "" H 7200 3000 60  0000 C CNN
F 3 "" H 7200 3000 60  0000 C CNN
	1    7200 3000
	1    0    0    -1  
$EndComp
Wire Wire Line
	7200 3000 7200 3100
Connection ~ 7200 3100
Wire Wire Line
	6500 4400 6400 4400
Wire Wire Line
	4200 3700 4300 3700
Text Label 4300 3700 0    60   ~ 0
BL
Text Label 4300 3100 0    60   ~ 0
VDD
Text Label 4300 3500 0    60   ~ 0
~CS
Text Label 4300 3400 0    60   ~ 0
D/C
Text Label 4300 3300 0    60   ~ 0
SI
Text Label 4300 3200 0    60   ~ 0
SCLK
Text Label 4300 3600 0    60   ~ 0
~RES
Text Label 4300 3800 0    60   ~ 0
GND
Text Label 6400 4400 2    60   ~ 0
BL
$Comp
L R R1
U 1 1 55A581AA
P 6650 4400
F 0 "R1" V 6730 4400 50  0000 C CNN
F 1 "1K" V 6657 4401 50  0000 C CNN
F 2 "Resistors_SMD:R_0603" V 6580 4400 30  0001 C CNN
F 3 "" H 6650 4400 30  0000 C CNN
	1    6650 4400
	0    -1   -1   0   
$EndComp
Wire Wire Line
	6900 4400 6800 4400
Text Notes 5100 5100 0    60   ~ 0
R2-R4 is 0R for white, blue LEDs\nBacklight can be dimmed using PWM
Wire Wire Line
	4600 3600 5400 3600
Connection ~ 4600 3100
Wire Wire Line
	4200 3600 4500 3600
$EndSCHEMATC
